40389	BRUA190220	Standard Rose	Amnesia	50	25	1	28	FLORICOLA ATTAROSES	4	0.28	0.29	0.12	0.29
40390	BRUA190220	Standard Rose	Coffee Break	50	25	1	28	FLORICOLA ATTAROSES	2	0.28	0.29	0.12	0.29
40391	BRUA190220	Standard Rose	Country Sun	50	25	1	28	FLORICOLA ATTAROSES	4	0.28	0.29	0.12	0.29
40392	BRUA190220	Standard Rose	Ocean Song	50	25	1	28	FLORICOLA ATTAROSES	2	0.28	0.29	0.12	0.29
40393	BRUA190220	Standard Rose	Rhoslyn	50	25	1	28	FLORICOLA ATTAROSES	4	0.28	0.29	0.12	0.29
40394	BRUA190220	Standard Rose	Tibet	50	25	1	28	FLORICOLA ATTAROSES	2	0.28	0.29	0.12	0.29
40395	BRUA190220	Standard Rose	Pastella	50	25	1	28	FLORICOLA ATTAROSES	2	0.28	0.29	0.12	0.29
40396	BRUA190220	Standard Rose	Chilis	50	25	1	28	FLORICOLA ATTAROSES	2	0.28	0.29	0.12	0.29
40397	BRUA190220	Standard Rose	Esperance	50	25	1	28	FLORICOLA ATTAROSES	2	0.28	0.29	0.12	0.29
40398	BRUA190220	Standard Rose	Chilis	60	25	1	28	FLORICOLA ATTAROSES	2	0.32	0.33	0.12	0.33
40399	BRUA190220	Standard Rose	Country Home	60	25	1	28	FLORICOLA ATTAROSES	2	0.32	0.33	0.12	0.33
40400	BRUA190220	Standard Rose	Quicksand	60	25	1	28	FLORICOLA ATTAROSES	2	0.32	0.33	0.12	0.33
40401	BRUA190220	Standard Rose	Rhoslyn	60	25	1	28	FLORICOLA ATTAROSES	4	0.32	0.33	0.12	0.33
40402	BRUA190220	Standard Rose	Amnesia	60	25	1	28	FLORICOLA ATTAROSES	2	0.32	0.33	0.12	0.33
40403	BRUA190220	Standard Rose	Pastella	60	25	1	28	FLORICOLA ATTAROSES	2	0.32	0.33	0.12	0.33
40404	BRUA190220	Standard Rose	New Flash	60	25	1	28	FLORICOLA ATTAROSES	2	0.32	0.33	0.12	0.33
40405	BRUA190220	Standard Rose	Peach Spirit	60	25	1	28	FLORICOLA ATTAROSES	2	0.32	0.33	0.12	0.33
40406	BRUA190220	Standard Rose	Conquista	60	25	1	28	FLORICOLA ATTAROSES	2	0.32	0.33	0.12	0.33
40407	BRUA190220	Standard Rose	La Perla	60	25	1	28	FLORICOLA ATTAROSES	2	0.32	0.33	0.12	0.33
40408	BRUA190220	Standard Rose	Ocean Song	60	25	1	28	FLORICOLA ATTAROSES	2	0.32	0.33	0.12	0.33
40441	BRUA190220	Standard Rose	High and Magic	70	25	1	131	AGROFLORA S.A.	8	0.45	0.47	0.12	0.47
40468	BRUA190220	Standard Rose	Blueberry	50	25	1	183	HOJA VERDE CIA. LTD	4	0.35	0.4	0.12	0.40
40433	BRUA190220	Standard Rose	Freedom	50	25	1	194	FLORES DE MONICA FL	14	0.4	0.42	0.12	0.42
40434	BRUA190220	Standard Rose	Pink Floyd	60	25	1	194	FLORES DE MONICA FL	4	0.35	0.36	0.12	0.36
40435	BRUA190220	Standard Rose	Explorer	60	25	1	194	FLORES DE MONICA FL	2	0.9	1.1	0.12	1.10
40436	BRUA190220	Standard Rose	Explorer	70	25	1	194	FLORES DE MONICA FL	2	1	1.2	0.12	1.20
40437	BRUA190220	Standard Rose	Black Magic	40	25	1	194	FLORES DE MONICA FL	4	0.3	0.31	0.12	0.31
40438	BRUA190220	Standard Rose	First Lady	50	25	1	195	FLOWER VILLAGE 	4	0.25	0.3	0.12	0.30
40409	BRUA190220	Standard Rose	Polar Star 	70	25	1	341	AGRINAG S.A.	4	0.48	0.5	0.12	0.50
40467	BRUA190220	Standard Rose	Hermosa	60	25	1	341	AGRINAG S.A.	4	0.4	0.42	0.12	0.42
40465	BRUA190220	Standard Rose	Salma	60	25	1	384	JOYGARDENS S.A.	4	0.5	0.6	0.12	0.60
40466	BRUA190220	Standard Rose	Salma	70	25	1	384	JOYGARDENS S.A.	4	0.6	0.7	0.12	0.70
40410	BRUA190220	Standard Rose	Amnesia	40	25	1	391	FLORES VERDES S.A. 	1	0.24	0.26	0.12	0.26
40411	BRUA190220	Standard Rose	Avant Garde	40	25	1	391	FLORES VERDES S.A. 	3	0.24	0.26	0.12	0.26
40412	BRUA190220	Standard Rose	Brighton	40	25	1	391	FLORES VERDES S.A. 	3	0.24	0.26	0.12	0.26
40413	BRUA190220	Standard Rose	Candlelight	40	25	1	391	FLORES VERDES S.A. 	1	0.24	0.26	0.12	0.27
40414	BRUA190220	Standard Rose	Free Spirit	40	25	1	391	FLORES VERDES S.A. 	2	0.24	0.26	0.12	0.26
40415	BRUA190220	Standard Rose	Inocencia	40	25	1	391	FLORES VERDES S.A. 	1	0.24	0.26	0.12	0.26
40416	BRUA190220	Standard Rose	Lola	40	25	1	391	FLORES VERDES S.A. 	2	0.24	0.26	0.12	0.26
40417	BRUA190220	Standard Rose	Roseberry	40	25	1	391	FLORES VERDES S.A. 	1	0.24	0.26	0.12	0.26
40418	BRUA190220	Standard Rose	Tibet	40	25	1	391	FLORES VERDES S.A. 	3	0.24	0.26	0.12	0.26
40419	BRUA190220	Standard Rose	Tycoon	40	25	1	391	FLORES VERDES S.A. 	1	0.24	0.26	0.12	0.26
40420	BRUA190220	Standard Rose	Wasabi	40	25	1	391	FLORES VERDES S.A. 	1	0.24	0.26	0.12	0.26
40422	BRUA190220	Standard Rose	Magic Times	40	25	1	391	FLORES VERDES S.A. 	1	0.24	0.26	0.12	0.26
40423	BRUA190220	Standard Rose	Amnesia	40	25	1	391	FLORES VERDES S.A. 	2	0.24	0.26	0.12	0.26
40424	BRUA190220	Standard Rose	Candlelight	40	25	1	391	FLORES VERDES S.A. 	2	0.24	0.26	0.12	0.26
40425	BRUA190220	Standard Rose	Early Grey 	40	25	1	391	FLORES VERDES S.A. 	2	0.24	0.26	0.12	0.26
40426	BRUA190220	Standard Rose	Free Spirit	40	25	1	391	FLORES VERDES S.A. 	3	0.24	0.26	0.12	0.26
40427	BRUA190220	Standard Rose	High and Magic	40	25	1	391	FLORES VERDES S.A. 	3	0.24	0.26	0.12	0.26
40428	BRUA190220	Standard Rose	Lola	40	25	1	391	FLORES VERDES S.A. 	3	0.24	0.26	0.12	0.26
40429	BRUA190220	Standard Rose	Magic Times	40	25	1	391	FLORES VERDES S.A. 	1	0.24	0.26	0.12	0.26
40430	BRUA190220	Standard Rose	Tibet	40	25	1	391	FLORES VERDES S.A. 	3	0.24	0.26	0.12	0.26
40431	BRUA190220	Standard Rose	Wasabi	40	25	1	391	FLORES VERDES S.A. 	1	0.24	0.26	0.12	0.26
40432	BRUA190220	Standard Rose	Deep Purple	60	25	1	438	DREAM FARMS	6	0.45	0.47	0.12	0.47
40472	BRUA190220	Standard Rose	Hermosa	60	25	1	440	SISAPAMBA ROSAS	4	0.38	0.45	0.12	0.45
40481	BRUA190220	Standard Rose	Cabaret	40	25	1	440	SISAPAMBA ROSAS	1	0.2	0.25	0.12	0.25
40482	BRUA190220	Standard Rose	Cherry Brandy	40	25	1	440	SISAPAMBA ROSAS	1	0.2	0.25	0.12	0.25
40483	BRUA190220	Standard Rose	Circus	40	25	1	440	SISAPAMBA ROSAS	1	0.2	0.25	0.12	0.25
40484	BRUA190220	Standard Rose	Cuenca	40	25	1	440	SISAPAMBA ROSAS	1	0.2	0.25	0.12	0.25
40485	BRUA190220	Standard Rose	Esperance	40	25	1	440	SISAPAMBA ROSAS	1	0.2	0.25	0.12	0.25
40486	BRUA190220	Standard Rose	Green Tea	40	25	1	440	SISAPAMBA ROSAS	1	0.2	0.25	0.12	0.25
40487	BRUA190220	Standard Rose	Hermosa	40	25	1	440	SISAPAMBA ROSAS	1	0.2	0.25	0.12	0.25
40488	BRUA190220	Standard Rose	High and Intenzz	40	25	1	440	SISAPAMBA ROSAS	2	0.2	0.25	0.12	0.25
40489	BRUA190220	Standard Rose	High and Magic	40	25	1	440	SISAPAMBA ROSAS	1	0.2	0.25	0.12	0.25
40490	BRUA190220	Standard Rose	High and Yellow Flame	40	25	1	440	SISAPAMBA ROSAS	1	0.2	0.25	0.12	0.25
40491	BRUA190220	Standard Rose	Idole	40	25	1	440	SISAPAMBA ROSAS	2	0.2	0.25	0.12	0.25
40492	BRUA190220	Standard Rose	Iguazu	40	25	1	440	SISAPAMBA ROSAS	1	0.2	0.25	0.12	0.25
40493	BRUA190220	Standard Rose	Mondial	40	25	1	440	SISAPAMBA ROSAS	1	0.2	0.25	0.12	0.25
40494	BRUA190220	Standard Rose	White OHara	40	25	1	440	SISAPAMBA ROSAS	1	0.2	0.25	0.12	0.25
40495	BRUA190220	Standard Rose	Peach Aubade	40	25	1	440	SISAPAMBA ROSAS	1	0.2	0.25	0.12	0.25
40496	BRUA190220	Standard Rose	Ragazza	40	25	1	440	SISAPAMBA ROSAS	1	0.2	0.25	0.12	0.25
40497	BRUA190220	Standard Rose	Sandy 	40	25	1	440	SISAPAMBA ROSAS	1	0.2	0.25	0.12	0.25
40498	BRUA190220	Standard Rose	Sweet Escimo	40	25	1	440	SISAPAMBA ROSAS	2	0.2	0.25	0.12	0.25
40499	BRUA190220	Standard Rose	Tibet	40	25	1	440	SISAPAMBA ROSAS	2	0.2	0.25	0.12	0.25
40500	BRUA190220	Standard Rose	Tycoon	40	25	1	440	SISAPAMBA ROSAS	1	0.2	0.25	0.12	0.25
40501	BRUA190220	Standard Rose	Blessing 	40	25	1	440	SISAPAMBA ROSAS	1	0.2	0.25	0.12	0.25
40502	BRUA190220	Standard Rose	Blizzard	40	25	1	440	SISAPAMBA ROSAS	1	0.2	0.25	0.12	0.25
40503	BRUA190220	Standard Rose	Cabaret	40	25	1	440	SISAPAMBA ROSAS	1	0.2	0.25	0.12	0.25
40504	BRUA190220	Standard Rose	Cezanne	40	25	1	440	SISAPAMBA ROSAS	1	0.2	0.25	0.12	0.25
40505	BRUA190220	Standard Rose	Cherry Brandy	40	25	1	440	SISAPAMBA ROSAS	1	0.2	0.25	0.12	0.25
40506	BRUA190220	Standard Rose	Circus	40	25	1	440	SISAPAMBA ROSAS	1	0.2	0.25	0.12	0.25
40507	BRUA190220	Standard Rose	Cuenca	40	25	1	440	SISAPAMBA ROSAS	1	0.2	0.25	0.12	0.25
40508	BRUA190220	Standard Rose	Engagement	40	25	1	440	SISAPAMBA ROSAS	1	0.2	0.25	0.12	0.25
40509	BRUA190220	Standard Rose	Esperance	40	25	1	440	SISAPAMBA ROSAS	1	0.2	0.25	0.12	0.25
40510	BRUA190220	Standard Rose	Free Spirit	40	25	1	440	SISAPAMBA ROSAS	2	0.2	0.25	0.12	0.25
40511	BRUA190220	Standard Rose	Hermosa	40	25	1	440	SISAPAMBA ROSAS	1	0.2	0.25	0.12	0.25
40512	BRUA190220	Standard Rose	High and Magic	40	25	1	440	SISAPAMBA ROSAS	2	0.2	0.25	0.12	0.25
40513	BRUA190220	Standard Rose	Lola	40	25	1	440	SISAPAMBA ROSAS	2	0.2	0.25	0.12	0.25
40514	BRUA190220	Standard Rose	Moonstone	40	25	1	440	SISAPAMBA ROSAS	1	0.2	0.25	0.12	0.25
40515	BRUA190220	Standard Rose	Peach Aubade	40	25	1	440	SISAPAMBA ROSAS	2	0.2	0.25	0.12	0.25
40516	BRUA190220	Standard Rose	Sandy 	40	25	1	440	SISAPAMBA ROSAS	1	0.2	0.25	0.12	0.25
40517	BRUA190220	Standard Rose	Sweet Escimo	40	25	1	440	SISAPAMBA ROSAS	2	0.2	0.25	0.12	0.25
40518	BRUA190220	Standard Rose	Sweetness	40	25	1	440	SISAPAMBA ROSAS	1	0.2	0.25	0.12	0.25
40519	BRUA190220	Standard Rose	Tycoon	40	25	1	440	SISAPAMBA ROSAS	1	0.2	0.25	0.12	0.25
40475	BRUA190220	Standard Rose	Pink Floyd	80	25	1	455	MURADIAN ROSES	10	0.7	0.73	0.12	0.73
40476	BRUA190220	Standard Rose	Freedom	70	25	1	455	MURADIAN ROSES	6	0.75	0.78	0.12	0.78
40477	BRUA190220	Standard Rose	Freedom	80	25	1	455	MURADIAN ROSES	6	0.85	0.88	0.12	0.88
40421	BRUA190220	Standard Rose	Stardust	70	25	1	488	AGRIVALDANI S.A.	4	0.38	0.4	0.12	0.40
40442	BRUA190220	Standard Rose	Mondial	80	25	1	494	GQ FLOWERS	4	0.7	0.73	0.12	0.73
40443	BRUA190220	Standard Rose	Mondial	70	25	1	494	GQ FLOWERS	4	0.5	0.52	0.12	0.52
40444	BRUA190220	Standard Rose	Explorer	70	25	1	494	GQ FLOWERS	12	0.9	0.94	0.12	0.94
40439	BRUA190220	Standard Rose	Vendela	60	25	1	506	AZAYA GARDENS	4	0.45	0.47	0.12	0.47
40440	BRUA190220	Standard Rose	Scarlata	40	25	1	506	AZAYA GARDENS	5	0.4	0.45	0.12	0.45
40473	BRUA190220	Carnations	Ormea	70	25	1	514	BEL FLOWERS	24	0.15	0.18	0.12	0.18
40474	BRUA190220	Carnations	BelFlowers Assorted	70	25	1	514	BEL FLOWERS	24	0.13	0.16	0.12	0.16
40469	BRUA190220	Standard Rose	Freedom	50	25	1	527	BLESS FLOWER 	12	0.5	0.52	0.12	0.52
40470	BRUA190220	Standard Rose	Freedom	60	25	1	527	BLESS FLOWER 	12	0.6	0.62	0.12	0.62
40471	BRUA190220	Standard Rose	Pink Floyd	60	25	1	527	BLESS FLOWER 	12	0.45	0.47	0.12	0.47
40445	BRUA190220	Standard Rose	Pink Floyd	60	25	1	551	LAYMIFLOR	12	0.45	0.45	0.12	0.45
40446	BRUA190220	Standard Rose	Pink Floyd	60	25	1	551	LAYMIFLOR	6	0.4	0.45	0.12	0.45
40447	BRUA190220	Standard Rose	Pink Floyd	50	25	1	551	LAYMIFLOR	6	0.35	0.36	0.12	0.36
40448	BRUA190220	Standard Rose	Explorer	70	25	1	551	LAYMIFLOR	3	0.8	0.83	0.12	0.83
40449	BRUA190220	Standard Rose	Explorer	60	25	1	551	LAYMIFLOR	9	0.7	0.73	0.12	0.73
40450	BRUA190220	Standard Rose	Nina	70	25	1	551	LAYMIFLOR	6	0.5	0.52	0.12	0.52
40451	BRUA190220	Standard Rose	Nina	60	25	1	551	LAYMIFLOR	6	0.45	0.47	0.12	0.47
40452	BRUA190220	Standard Rose	Finally	60	25	1	551	LAYMIFLOR	4	0.6	0.65	0.12	0.65
40453	BRUA190220	Standard Rose	Finally	50	25	1	551	LAYMIFLOR	12	0.5	0.55	0.12	0.55
40454	BRUA190220	Standard Rose	Scarlata	70	25	1	551	LAYMIFLOR	6	0.7	0.73	0.12	0.73
40455	BRUA190220	Standard Rose	Scarlata	60	25	1	551	LAYMIFLOR	6	0.6	0.62	0.12	0.62
40456	BRUA190220	Standard Rose	Freedom	50	25	1	551	LAYMIFLOR	1	0.28	0.55	0.12	0.55
40457	BRUA190220	Standard Rose	Explorer	50	25	1	551	LAYMIFLOR	1	0.28	0.29	0.12	0.29
40458	BRUA190220	Standard Rose	Mondial	50	25	1	551	LAYMIFLOR	2	0.28	0.29	0.12	0.29
40459	BRUA190220	Standard Rose	Pink Floyd	50	25	1	551	LAYMIFLOR	2	0.28	0.29	0.12	0.29
40460	BRUA190220	Standard Rose	Ragazza	50	25	1	551	LAYMIFLOR	2	0.28	0.29	0.12	0.29
40461	BRUA190220	Standard Rose	Playa Blanca 	50	25	1	551	LAYMIFLOR	2	0.28	0.29	0.12	0.29
40462	BRUA190220	Standard Rose	Paloma	50	25	1	551	LAYMIFLOR	2	0.28	0.29	0.12	0.29
40463	BRUA190220	Standard Rose	Orange Crush	50	25	1	551	LAYMIFLOR	2	0.28	0.29	0.12	0.29
40464	BRUA190220	Standard Rose	Nina	50	25	1	551	LAYMIFLOR	2	0.28	0.29	0.12	0.29
40478	BRUA190220	Standard Rose	Explorer	40	25	1	552	BRITNEY ROSES	2	0.5	0.52	0.12	0.52
40479	BRUA190220	Standard Rose	Explorer	50	25	1	552	BRITNEY ROSES	6	0.6	0.62	0.12	0.62
40480	BRUA190220	Standard Rose	Nina	60	25	1	552	BRITNEY ROSES	2	0.25	0.26	0.12	0.26
40520	BRUA190220	Standard Rose	Mix Color	40	25	1	552	BRITNEY ROSES	16	0.2	0.25	0.12	0.25
