25 bunch per stem

price::::

50= 0.22
60= 0.24
70= 0.28
80= 0.30
90= 0.32

box size:
hb 120*30*30
qb 120*20*20

 qb 50/60 -- 100 stems--4 

 hb 50    -- 300 stems--12
    60 ----- 300 Stems--12
    70 ----- 250 stems--10
80/90/100 -- 200 stems--8



box weight:

50/60--  21 kl
70/80--  19 kl
