*InvoiceNo,*Customer,*InvoiceDate,*DueDate,Terms,Location,Memo,Item(Product/Service),ItemDescription,ItemQuantity,ItemRate,*ItemAmount,*ItemTaxCode,ItemTaxAmount,Currency
4004,Balconi,30/11/2019,15/12/2019,Net 15,,,Carnations:Mini Carnation,Chateau  10 st/bu Fancy,2,5.3,10.6,GST,0.53,CAD
4004,Balconi,30/11/2019,15/12/2019,Net 15,,,Carnations:Carnation,Crimson Tempo  25 st/bu Standard,2,11,22,GST,1.1,CAD
4004,Balconi,30/11/2019,15/12/2019,Net 15,,,"Greens, Foliages and Branches:Eryngium",Deep Blue Jackpot 50 cm 5 st/bu ,2,14.5,29,GST,1.45,CAD
4004,Balconi,30/11/2019,15/12/2019,Net 15,,,Roses:Roses,Explorer 60 cm 25 st/bu ,1,33.75,33.75,GST,1.6875,CAD
4004,Balconi,30/11/2019,15/12/2019,Net 15,,,Roses:Roses,Freedom 60 cm 25 st/bu ,1,33.75,33.75,GST,1.6875,CAD
4004,Balconi,30/11/2019,15/12/2019,Net 15,,,Carnations:Mini Carnation,Ibis  10 st/bu Fancy,2,5.3,10.6,GST,0.53,CAD
4004,Balconi,30/11/2019,15/12/2019,Net 15,,,Roses:Roses,Pink Mondial 60 cm 25 st/bu ,1,33.75,33.75,GST,1.6875,CAD
4004,Balconi,30/11/2019,15/12/2019,Net 15,,,Roses:Roses,Playa Blanca  60 cm 25 st/bu ,1,33.75,33.75,GST,1.6875,CAD
4004,Balconi,30/11/2019,15/12/2019,Net 15,,,Roses:Roses,Vendela 60 cm 25 st/bu ,1,33.75,33.75,GST,1.6875,CAD
