*InvoiceNo,*Customer,*InvoiceDate,*DueDate,Terms,Location,Memo,Item(Product/Service),ItemDescription,ItemQuantity,ItemRate,*ItemAmount,*ItemTaxCode,ItemTaxAmount,Currency
4004,Windsor Market,30/11/2019,15/12/2019,Net 15,,,Roses:Roses,Faith 50 cm 25 st/bu ,1,33.75,33.75,GST,1.6875,CAD
4004,Windsor Market,30/11/2019,15/12/2019,Net 15,,,Roses:Roses,Freedom 60 cm 25 st/bu ,1,33.75,33.75,GST,1.6875,CAD
4004,Windsor Market,30/11/2019,15/12/2019,Net 15,,,Roses:Roses,Hot Explorer 70 cm 25 st/bu ,1,33.75,33.75,GST,1.6875,CAD
4004,Windsor Market,30/11/2019,15/12/2019,Net 15,,,Flowers & Fillers:Hypericum,Magical Green Power 70 cm 10 st/bu ,1,12.5,12.5,GST,0.625,CAD
4004,Windsor Market,30/11/2019,15/12/2019,Net 15,,,Flowers & Fillers:Hypericum,Magical Orange 70 cm 10 st/bu ,1,12.5,12.5,GST,0.625,CAD
4004,Windsor Market,30/11/2019,15/12/2019,Net 15,,,Roses:Roses,Mondial 60 cm 25 st/bu ,1,33.75,33.75,GST,1.6875,CAD
4004,Windsor Market,30/11/2019,15/12/2019,Net 15,,,Roses:Roses,Tiffany 60 cm 25 st/bu ,1,33.75,33.75,GST,1.6875,CAD
