*InvoiceNo,*Customer,*InvoiceDate,*DueDate,Terms,Location,Memo,Item(Product/Service),ItemDescription,ItemQuantity,ItemRate,*ItemAmount,*ItemTaxCode,ItemTaxAmount,Currency
4003,Windsor Market,23/11/2019,08/12/2019,Net 15,,,Roses:Roses,Free Spirit 50 cm 25 st/bu ,1,33.75,33.75,GST,1.6875,CAD
4003,Windsor Market,23/11/2019,08/12/2019,Net 15,,,Roses:Roses,Freedom 60 cm 25 st/bu ,1,33.75,33.75,GST,1.6875,CAD
4003,Windsor Market,23/11/2019,08/12/2019,Net 15,,,Flowers & Fillers:Stock,James Lavander 70 cm 10 st/bu ,1,10,10,GST,0.5,CAD
4003,Windsor Market,23/11/2019,08/12/2019,Net 15,,,Flowers & Fillers:Stock,James Peach 70 cm 10 st/bu ,1,10,10,GST,0.5,CAD
4003,Windsor Market,23/11/2019,08/12/2019,Net 15,,,Flowers & Fillers:Stock,James Purple 70 cm 10 st/bu ,1,10,10,GST,0.5,CAD
4003,Windsor Market,23/11/2019,08/12/2019,Net 15,,,Flowers & Fillers:Stock,James White 70 cm 10 st/bu ,2,10,20,GST,1,CAD
4003,Windsor Market,23/11/2019,08/12/2019,Net 15,,,Flowers & Fillers:Hypericum,Magical Peach 70 cm 10 st/bu ,1,12.5,12.5,GST,0.625,CAD
4003,Windsor Market,23/11/2019,08/12/2019,Net 15,,,Flowers & Fillers:Hypericum,Magical Pink 70 cm 10 st/bu ,1,12.5,12.5,GST,0.625,CAD
4003,Windsor Market,23/11/2019,08/12/2019,Net 15,,,Flowers & Fillers:Hypericum,Magical Red Wine 70 cm 10 st/bu ,1,12.5,12.5,GST,0.625,CAD
4003,Windsor Market,23/11/2019,08/12/2019,Net 15,,,Flowers & Fillers:Hypericum,Magical Triumph 70 cm 10 st/bu ,1,12.5,12.5,GST,0.625,CAD
4003,Windsor Market,23/11/2019,08/12/2019,Net 15,,,Flowers & Fillers:Hypericum,Magical White 70 cm 10 st/bu ,1,12.5,12.5,GST,0.625,CAD
4003,Windsor Market,23/11/2019,08/12/2019,Net 15,,,Roses:Roses,Mondial 60 cm 25 st/bu ,1,33.75,33.75,GST,1.6875,CAD
4003,Windsor Market,23/11/2019,08/12/2019,Net 15,,,Roses:Roses,Shimmer 60 cm 25 st/bu ,1,33.75,33.75,GST,1.6875,CAD
4003,Windsor Market,23/11/2019,08/12/2019,Net 15,,,Flowers & Fillers:Sunflowers,Sunflower 70 cm 5 st/bu ,4,5,20,GST,1,CAD
