4010	Angela & Gabriels	2020-01-19	2020-02-03	Net 15			Roses:Roses	Explorer 70 cm 25 st/bu 	4	36.25	145.00	GST	7.2500	CAD
4010	Angela & Gabriels	2020-01-19	2020-02-03	Net 15			Roses:Roses	Explorer 70 cm 25 st/bu 	1	36.25	36.25	GST	1.8125	CAD
4010	Angela & Gabriels	2020-01-19	2020-02-03	Net 15			Roses:Roses	Mondial 70 cm 25 st/bu 	3	36.25	108.75	GST	5.4375	CAD
4010	Angela & Gabriels	2020-01-19	2020-02-03	Net 15			Roses:Roses	Mondial 70 cm 25 st/bu 	1	36.25	36.25	GST	1.8125	CAD
4010	Angela & Gabriels	2020-01-19	2020-02-03	Net 15			Roses:Roses	Moody Blues 70 cm 25 st/bu 	1	36.25	36.25	GST	1.8125	CAD
4010	Angela & Gabriels	2020-01-19	2020-02-03	Net 15			Roses:Roses	Moody Blues 70 cm 25 st/bu 	1	36.25	36.25	GST	1.8125	CAD
4010	Angela & Gabriels	2020-01-19	2020-02-03	Net 15			Roses:Roses	Pink Mondial 70 cm 25 st/bu 	2	36.25	72.50	GST	3.6250	CAD
4010	Angela & Gabriels	2020-01-19	2020-02-03	Net 15			Roses:Roses	Pink Mondial 70 cm 25 st/bu 	1	33.75	33.75	GST	1.6875	CAD
4010	Angela & Gabriels	2020-01-19	2020-02-03	Net 15			Roses:Roses	Queenberry 70 cm 25 st/bu 	2	36.25	72.50	GST	3.6250	CAD
4010	Angela & Gabriels	2020-01-19	2020-02-03	Net 15			Roses:Roses	Queenberry 70 cm 25 st/bu 	2	36.25	72.50	GST	3.6250	CAD
4010	Foxgloves	2020-01-19	2020-02-03	Net 15			Flowers & Fillers:Hypericum	Magical Pink 70 cm 10 st/bu 	1	12.50	12.50	GST	0.6250	CAD
4010	Foxgloves	2020-01-19	2020-02-03	Net 15			Roses:Roses	Andrea 60 cm 25 st/bu 	1	33.75	33.75	GST	1.6875	CAD
4010	Foxgloves	2020-01-19	2020-02-03	Net 15			Roses:Roses	Confidential 60 cm 25 st/bu 	1	33.75	33.75	GST	1.6875	CAD
4010	Foxgloves	2020-01-19	2020-02-03	Net 15			Roses:Roses	Gotcha 60 cm 25 st/bu 	1	33.75	33.75	GST	1.6875	CAD
4010	Foxgloves	2020-01-19	2020-02-03	Net 15			Roses:Roses	Playa Blanca  60 cm 25 st/bu 	1	33.75	33.75	GST	1.6875	CAD
4010	Foxgloves	2020-01-19	2020-02-03	Net 15			Roses:Roses	Shimmer 60 cm 25 st/bu 	1	33.75	33.75	GST	1.6875	CAD
4010	Foxgloves	2020-01-19	2020-02-03	Net 15			Roses:Roses	Turtle 60 cm 25 st/bu 	1	33.75	33.75	GST	1.6875	CAD
4010	Foxgloves	2020-01-19	2020-02-03	Net 15			Roses:Spray Roses	Sahara Sensation 60 cm 10 st/bu 	1	15.50	15.50	GST	0.7750	CAD
4010	Foxgloves	2020-01-19	2020-02-03	Net 15			Roses:Spray Roses	Somerset 50 cm 10 st/bu 	1	15.50	15.50	GST	0.7750	CAD
4010	Garden Party Team	2020-01-19	2020-02-03	Net 15			Carnations:Carnation	Andate 60 cm 25 st/bu Standard	1	11.00	11.00	GST	0.5500	CAD
4010	Garden Party Team	2020-01-19	2020-02-03	Net 15			Carnations:Carnation	Caramel 50 cm 25 st/bu Standard	1	11.00	11.00	GST	0.5500	CAD
4010	Garden Party Team	2020-01-19	2020-02-03	Net 15			Carnations:Carnation	Caramel 50 cm 25 st/bu Standard	1	11.00	11.00	GST	0.5500	CAD
4010	Garden Party Team	2020-01-19	2020-02-03	Net 15			Roses:Garden Roses	Pink Ohara 50 cm 25 st/bu 	1	46.25	46.25	GST	2.3125	CAD
4010	Garden Party Team	2020-01-19	2020-02-03	Net 15			Roses:Garden Roses	Pink Ohara 50 cm 25 st/bu 	1	46.25	46.25	GST	2.3125	CAD
4010	Garden Party Team	2020-01-19	2020-02-03	Net 15			Roses:Roses	Hot Explorer 60 cm 25 st/bu 	2	33.75	67.50	GST	3.3750	CAD
4010	Garden Party Team	2020-01-19	2020-02-03	Net 15			Roses:Roses	Kahala  60 cm 25 st/bu 	1	33.75	33.75	GST	1.6875	CAD
4010	Garden Party Team	2020-01-19	2020-02-03	Net 15			Roses:Roses	Kahala  60 cm 25 st/bu 	1	33.75	33.75	GST	1.6875	CAD
4010	Garden Party Team	2020-01-19	2020-02-03	Net 15			Roses:Roses	Pink Mondial 60 cm 25 st/bu 	2	33.75	67.50	GST	3.3750	CAD
4010	Garden Party Team	2020-01-19	2020-02-03	Net 15			Roses:Roses	Pink Mondial 60 cm 25 st/bu 	1	33.75	33.75	GST	1.6875	CAD
4010	Garden Party Team	2020-01-19	2020-02-03	Net 15			Roses:Roses	Shimmer 60 cm 25 st/bu 	1	33.75	33.75	GST	1.6875	CAD
4010	Garden Party Team	2020-01-19	2020-02-03	Net 15			Roses:Roses	Shimmer 60 cm 25 st/bu 	2	33.75	67.50	GST	3.3750	CAD
4010	Garden Party Team	2020-01-19	2020-02-03	Net 15			Roses:Spray Roses	Rubicon 50 cm 10 st/bu 	2	13.00	26.00	GST	1.3000	CAD
4010	Harrys Flowers	2020-01-19	2020-02-03	Net 15			Asters:Solidago Golden Glory	Solidago Golden Glory 80 cm 10 st/bu 250gr	5	9.85	49.25	GST	2.4625	CAD
4010	Harrys Flowers	2020-01-19	2020-02-03	Net 15			Carnations:Carnation	Banana 60 cm 25 st/bu Standard	1	10.50	10.50	GST	0.5250	CAD
4010	Harrys Flowers	2020-01-19	2020-02-03	Net 15			Carnations:Carnation	Boheme 60 cm 25 st/bu Standard	1	10.50	10.50	GST	0.5250	CAD
4010	Harrys Flowers	2020-01-19	2020-02-03	Net 15			Carnations:Carnation	Caramel 50 cm 25 st/bu Standard	1	10.50	10.50	GST	0.5250	CAD
4010	Harrys Flowers	2020-01-19	2020-02-03	Net 15			Carnations:Carnation	Doncel  60 cm 25 st/bu Standard	2	10.50	21.00	GST	1.0500	CAD
4010	Harrys Flowers	2020-01-19	2020-02-03	Net 15			Carnations:Carnation	Doncel  50 cm 25 st/bu Standard	1	10.50	10.50	GST	0.5250	CAD
4010	Harrys Flowers	2020-01-19	2020-02-03	Net 15			Carnations:Carnation	Gransole 50 cm 25 st/bu Standard	2	10.50	21.00	GST	1.0500	CAD
4010	Harrys Flowers	2020-01-19	2020-02-03	Net 15			Carnations:Carnation	Lion King 60 cm 25 st/bu Standard	1	10.50	10.50	GST	0.5250	CAD
4010	Harrys Flowers	2020-01-19	2020-02-03	Net 15			Carnations:Carnation	Mandalay 50 cm 25 st/bu Standard	1	10.50	10.50	GST	0.5250	CAD
4010	Harrys Flowers	2020-01-19	2020-02-03	Net 15			Carnations:Carnation	Moonlight 60 cm 25 st/bu Standard	1	10.50	10.50	GST	0.5250	CAD
4010	Harrys Flowers	2020-01-19	2020-02-03	Net 15			Carnations:Mini Carnation	Ada 50 cm 10 st/bu Select	1	5.30	5.30	GST	0.2650	CAD
4010	Harrys Flowers	2020-01-19	2020-02-03	Net 15			Carnations:Mini Carnation	Dracula 50 cm 10 st/bu Select	3	5.30	15.90	GST	0.7950	CAD
4010	Harrys Flowers	2020-01-19	2020-02-03	Net 15			Carnations:Mini Carnation	Fellini 60 cm 10 st/bu Fancy	2	5.30	10.60	GST	0.5300	CAD
4010	Harrys Flowers	2020-01-19	2020-02-03	Net 15			Carnations:Mini Carnation	Lina 50 cm 10 st/bu Select	2	5.30	10.60	GST	0.5300	CAD
4010	Harrys Flowers	2020-01-19	2020-02-03	Net 15			Carnations:Mini Carnation	Pigeon 60 cm 10 st/bu Fancy	2	5.30	10.60	GST	0.5300	CAD
4010	Harrys Flowers	2020-01-19	2020-02-03	Net 15			Carnations:Mini Carnation	Pigeon 50 cm 10 st/bu Select	4	5.30	21.20	GST	1.0600	CAD
4010	Harrys Flowers	2020-01-19	2020-02-03	Net 15			Flowers & Fillers:Gypsophilia 500gr	Xcelence 75 cm 10 st/bu 250gr	4	16.00	64.00	GST	3.2000	CAD
4010	Harrys Flowers	2020-01-19	2020-02-03	Net 15			Limonium:Statice	Purple 70 cm 10 st/bu 	6	8.75	52.50	GST	2.6250	CAD
4010	Harrys Flowers	2020-01-19	2020-02-03	Net 15			Roses:Roses	Atomic 60 cm 25 st/bu 	1	33.75	33.75	GST	1.6875	CAD
4010	Harrys Flowers	2020-01-19	2020-02-03	Net 15			Roses:Roses	Deep Purple 60 cm 25 st/bu 	1	33.75	33.75	GST	1.6875	CAD
4010	Harrys Flowers	2020-01-19	2020-02-03	Net 15			Roses:Roses	Euforia 50 cm 10 st/bu Select	2	5.30	10.60	GST	0.5300	CAD
4010	Harrys Flowers	2020-01-19	2020-02-03	Net 15			Roses:Roses	Freedom 60 cm 25 st/bu 	4	33.75	135.00	GST	6.7500	CAD
4010	Harrys Flowers	2020-01-19	2020-02-03	Net 15			Roses:Roses	Frutteto 60 cm 25 st/bu 	1	33.75	33.75	GST	1.6875	CAD
4010	Harrys Flowers	2020-01-19	2020-02-03	Net 15			Roses:Roses	Gotcha 60 cm 25 st/bu 	2	33.75	67.50	GST	3.3750	CAD
4010	Harrys Flowers	2020-01-19	2020-02-03	Net 15			Roses:Roses	Mondial 60 cm 25 st/bu 	3	33.75	101.25	GST	5.0625	CAD
4010	Harrys Flowers	2020-01-19	2020-02-03	Net 15			Roses:Roses	Tiffany 60 cm 25 st/bu 	1	33.75	33.75	GST	1.6875	CAD
4010	Ingrid Wu	2020-01-19	2020-02-03	Net 15			Asters:Solidago Golden Glory	Solidago Golden Glory 70 cm 10 st/bu 	10	6.05	60.50	GST	3.0250	CAD
4010	Ingrid Wu	2020-01-19	2020-02-03	Net 15			Roses:Roses	Freedom 60 cm 25 st/bu 	2	33.75	67.50	GST	3.3750	CAD
4010	John den Haan	2020-01-19	2020-02-03	Net 15			Roses:Roses	Quicksand 60 cm 25 st/bu 	1	41.25	41.25	GST	2.0625	CAD
4010	Oak Bay Flower Shop	2020-01-19	2020-02-03	Net 15			Carnations:Carnation	Banana 60 cm 25 st/bu Standard	1	11.00	11.00	GST	0.5500	CAD
4010	Oak Bay Flower Shop	2020-01-19	2020-02-03	Net 15			Carnations:Carnation	Mandalay 50 cm 25 st/bu Standard	1	11.00	11.00	GST	0.5500	CAD
4010	Oak Bay Flower Shop	2020-01-19	2020-02-03	Net 15			Flowers & Fillers:Gypsophilia 500gr	Million Stars 75 cm 10 st/bu 500 gr	3	16.00	48.00	GST	2.4000	CAD
4010	Oak Bay Flower Shop	2020-01-19	2020-02-03	Net 15			Flowers & Fillers:Leucadendrum	Leucadendrum 65 cm 10 st/bu 	1	8.75	8.75	GST	0.4375	CAD
4010	Oak Bay Flower Shop	2020-01-19	2020-02-03	Net 15			Limonium:Statice	Purple 70 cm 10 st/bu 	1	8.75	8.75	GST	0.4375	CAD
4010	Oak Bay Flower Shop	2020-01-19	2020-02-03	Net 15			Roses:Roses	Brighton 60 cm 25 st/bu 	1	33.75	33.75	GST	1.6875	CAD
4010	Oak Bay Flower Shop	2020-01-19	2020-02-03	Net 15			Roses:Roses	Explorer 60 cm 25 st/bu 	1	33.75	33.75	GST	1.6875	CAD
4010	Oak Bay Flower Shop	2020-01-19	2020-02-03	Net 15			Roses:Roses	Mondial 60 cm 25 st/bu 	1	33.75	33.75	GST	1.6875	CAD
4010	Oak Bay Flower Shop	2020-01-19	2020-02-03	Net 15			Roses:Roses	Shimmer 60 cm 25 st/bu 	1	33.75	33.75	GST	1.6875	CAD
4010	Pacific Coast Floral Wholesale Ltd	2020-01-19	2020-02-03	Net 15			Flowers & Fillers:Bells Of Ireland	Molucella Bells of Ireland 90 cm 10 st/bu 	9	16.00	144.00	GST	7.2000	CAD
4010	Pacific Coast Floral Wholesale Ltd	2020-01-19	2020-02-03	Net 15			Flowers & Fillers:Bupleurum	Bupleurum 70 cm 10 st/bu 	8	12.50	100.00	GST	5.0000	CAD
4010	Pacific Coast Floral Wholesale Ltd	2020-01-19	2020-02-03	Net 15			Flowers & Fillers:Craspedia	Craspedias 60 cm 10 st/bu 	10	6.09	60.90	GST	3.0450	CAD
4010	Pacific Coast Floral Wholesale Ltd	2020-01-19	2020-02-03	Net 15			Greens, Foliages and Branches:Eryngium	Deep Blue Jackpot 50 cm 5 st/bu 	5	7.10	35.50	GST	1.7750	CAD
4010	The Flower Shop in the Village	2020-01-19	2020-02-03	Net 15			Roses:Roses	Brighton 60 cm 25 st/bu 	1	33.75	33.75	GST	1.6875	CAD
4010	The Flower Shop in the Village	2020-01-19	2020-02-03	Net 15			Roses:Roses	Hot Explorer 60 cm 25 st/bu 	1	33.75	33.75	GST	1.6875	CAD
4010	West Coast Floral Growers & Distr.	2020-01-19	2020-02-03	Net 15			Flowers & Fillers:Bupleurum	Bupleurum 70 cm 10 st/bu 	5	8.50	42.50	GST	2.1250	CAD
4010	West Coast Floral Growers & Distr.	2020-01-19	2020-02-03	Net 15			Flowers & Fillers:Craspedia	Craspedias 60 cm 10 st/bu 	5	6.00	30.00	GST	1.5000	CAD
4010	West Coast Floral Growers & Distr.	2020-01-19	2020-02-03	Net 15			Flowers & Fillers:Hydrangea Mini Green	Mini Green Dark 60 cm 1 st/bu Mini	30	1.50	45.00	GST	2.2500	CAD
4010	West Coast Floral Growers & Distr.	2020-01-19	2020-02-03	Net 15			Flowers & Fillers:Hydrangea Mini Green	Mini Green Dark 60 cm 1 st/bu Mini	30	1.50	45.00	GST	2.2500	CAD
4010	West Coast Floral Growers & Distr.	2020-01-19	2020-02-03	Net 15			Roses:Roses	Brighton 60 cm 25 st/bu 	2	31.25	62.50	GST	3.1250	CAD
4010	West Coast Floral Growers & Distr.	2020-01-19	2020-02-03	Net 15			Roses:Roses	Deep Purple 60 cm 25 st/bu 	2	31.25	62.50	GST	3.1250	CAD
4010	West Coast Floral Growers & Distr.	2020-01-19	2020-02-03	Net 15			Roses:Roses	Explorer 60 cm 25 st/bu 	1	31.25	31.25	GST	1.5625	CAD
4010	West Coast Floral Growers & Distr.	2020-01-19	2020-02-03	Net 15			Roses:Roses	Freedom 60 cm 25 st/bu 	3	31.25	93.75	GST	4.6875	CAD
4010	West Coast Floral Growers & Distr.	2020-01-19	2020-02-03	Net 15			Roses:Roses	Gotcha 60 cm 25 st/bu 	1	31.25	31.25	GST	1.5625	CAD
4010	West Coast Floral Growers & Distr.	2020-01-19	2020-02-03	Net 15			Roses:Roses	Orange Crush 60 cm 25 st/bu 	2	31.25	62.50	GST	3.1250	CAD
4010	West Coast Floral Growers & Distr.	2020-01-19	2020-02-03	Net 15			Roses:Roses	Pink Mondial 60 cm 25 st/bu 	1	31.25	31.25	GST	1.5625	CAD
4010	West Coast Floral Growers & Distr.	2020-01-19	2020-02-03	Net 15			Roses:Roses	Playa Blanca  60 cm 25 st/bu 	2	31.25	62.50	GST	3.1250	CAD
4010	West Coast Floral Growers & Distr.	2020-01-19	2020-02-03	Net 15			Roses:Roses	Quicksand 60 cm 25 st/bu 	1	31.25	31.25	GST	1.5625	CAD
4010	West Coast Floral Growers & Distr.	2020-01-19	2020-02-03	Net 15			Roses:Roses	Tiffany 60 cm 25 st/bu 	1	31.25	31.25	GST	1.5625	CAD
4010	West Coast Floral Growers & Distr.	2020-01-19	2020-02-03	Net 15			Roses:Spray Roses	White Majolika 50 cm 10 st/bu 	1	15.50	15.50	GST	0.7750	CAD
4010	West Coast Floral Growers & Distr.	2020-01-19	2020-02-03	Net 15			Roses:Spray Roses	White Majolika 60 cm 10 st/bu 	1	15.50	15.50	GST	0.7750	CAD
