*InvoiceNo,*Customer,*InvoiceDate,*DueDate,Terms,Location,Memo,Item(Product/Service),ItemDescription,ItemQuantity,ItemRate,*ItemAmount,*ItemTaxCode,ItemTaxAmount,Currency
4005,Angela & Gabriels,07/12/2019,22/12/2019,Net 15,,,Flowers & Fillers:Hydrangea Mini Green,Green Apple 60 cm 1 st/bu Premiun,12,2.45,29.4,GST,1.47,CAD
4005,Angela & Gabriels,07/12/2019,22/12/2019,Net 15,,,Flowers & Fillers:Hydrangea Mini Green,Green Apple 60 cm 1 st/bu Premiun,12,2.45,29.4,GST,1.47,CAD
4005,Angela & Gabriels,07/12/2019,22/12/2019,Net 15,,,Flowers & Fillers:Hydrangea Mini Green,Wicked 60 cm 1 st/bu Premiun,12,2.45,29.4,GST,1.47,CAD
4005,Angela & Gabriels,07/12/2019,22/12/2019,Net 15,,,Flowers & Fillers:Hydrangea Mini Green,Wicked 60 cm 1 st/bu Premiun,12,2.45,29.4,GST,1.47,CAD
4005,Angela & Gabriels,07/12/2019,22/12/2019,Net 15,,,Roses:Roses,Brighton 70 cm 25 st/bu ,1,36.25,36.25,GST,1.8125,CAD
4005,Angela & Gabriels,07/12/2019,22/12/2019,Net 15,,,Roses:Roses,Brighton 70 cm 25 st/bu ,1,36.25,36.25,GST,1.8125,CAD
4005,Angela & Gabriels,07/12/2019,22/12/2019,Net 15,,,Roses:Roses,Explorer 70 cm 25 st/bu ,4,36.25,145,GST,7.25,CAD
4005,Angela & Gabriels,07/12/2019,22/12/2019,Net 15,,,Roses:Roses,Explorer 70 cm 25 st/bu ,1,36.25,36.25,GST,1.8125,CAD
4005,Angela & Gabriels,07/12/2019,22/12/2019,Net 15,,,Roses:Roses,Gotcha 70 cm 25 st/bu ,2,36.25,72.5,GST,3.625,CAD
4005,Angela & Gabriels,07/12/2019,22/12/2019,Net 15,,,Roses:Roses,Gotcha 70 cm 25 st/bu ,1,36.25,36.25,GST,1.8125,CAD
4005,Angela & Gabriels,07/12/2019,22/12/2019,Net 15,,,Roses:Roses,Mondial 70 cm 25 st/bu ,3,36.25,108.75,GST,5.4375,CAD
4005,Angela & Gabriels,07/12/2019,22/12/2019,Net 15,,,Roses:Roses,Mondial 70 cm 25 st/bu ,1,36.25,36.25,GST,1.8125,CAD
4005,Angela & Gabriels,07/12/2019,22/12/2019,Net 15,,,Roses:Roses,Moody Blues 70 cm 25 st/bu ,1,36.25,36.25,GST,1.8125,CAD
4005,Angela & Gabriels,07/12/2019,22/12/2019,Net 15,,,Roses:Roses,Moody Blues 70 cm 25 st/bu ,1,36.25,36.25,GST,1.8125,CAD
4005,Angela & Gabriels,07/12/2019,22/12/2019,Net 15,,,Roses:Roses,Pink Mondial 70 cm 25 st/bu ,1,36.25,36.25,GST,1.8125,CAD
4005,Angela & Gabriels,07/12/2019,22/12/2019,Net 15,,,Roses:Roses,Pink Mondial 70 cm 25 st/bu ,1,36.25,36.25,GST,1.8125,CAD
4006,Brownies Florist,07/12/2019,22/12/2019,Net 15,,,Asters:Solidago Golden Glory,Solidago Golden Glory 80 cm 10 st/bu 250gr,2,9.85,19.7,GST,0.985,CAD
4006,Brownies Florist,07/12/2019,22/12/2019,Net 15,,,Flowers & Fillers:Bupleurum,Bupleurum 70 cm 10 st/bu ,1,9.5,9.5,GST,0.475,CAD
4006,Brownies Florist,07/12/2019,22/12/2019,Net 15,,,Flowers & Fillers:Stock,James Lavander 70 cm 10 st/bu ,1,11.75,11.75,GST,0.5875,CAD
4006,Brownies Florist,07/12/2019,22/12/2019,Net 15,,,Flowers & Fillers:Stock,James Purple 70 cm 10 st/bu ,1,11.75,11.75,GST,0.5875,CAD
4006,Brownies Florist,07/12/2019,22/12/2019,Net 15,,,Flowers & Fillers:Stock,James White 70 cm 10 st/bu ,1,11.75,11.75,GST,0.5875,CAD
4006,Brownies Florist,07/12/2019,22/12/2019,Net 15,,,Flowers & Fillers:Stock,James White 70 cm 10 st/bu ,1,11.75,11.75,GST,0.5875,CAD
4006,Brownies Florist,07/12/2019,22/12/2019,Net 15,,,Limonium:Statice,Bazzani Purple 70 cm 10 st/bu ,2,8.75,17.5,GST,0.875,CAD
4006,Brownies Florist,07/12/2019,22/12/2019,Net 15,,,Roses:Roses,Freedom 60 cm 25 st/bu ,1,33.75,33.75,GST,1.6875,CAD
4006,Brownies Florist,07/12/2019,22/12/2019,Net 15,,,Roses:Roses,Freedom 60 cm 25 st/bu ,1,33.75,33.75,GST,1.6875,CAD
4006,Brownies Florist,07/12/2019,22/12/2019,Net 15,,,Roses:Roses,Hot Explorer 60 cm 25 st/bu ,1,33.75,33.75,GST,1.6875,CAD
4006,Brownies Florist,07/12/2019,22/12/2019,Net 15,,,Roses:Roses,Pink Mondial 60 cm 25 st/bu ,1,33.75,33.75,GST,1.6875,CAD
4006,Brownies Florist,07/12/2019,22/12/2019,Net 15,,,Roses:Spray Roses,Alaska 50 cm 10 st/bu ,1,15.5,15.5,GST,0.775,CAD
4006,Brownies Florist,07/12/2019,22/12/2019,Net 15,,,Roses:Spray Roses,Lovely Lydia 50 cm 10 st/bu ,1,15.5,15.5,GST,0.775,CAD
4006,Brownies Florist,07/12/2019,22/12/2019,Net 15,,,Roses:Spray Roses,Yellow Babe 50 cm 10 st/bu ,1,15.5,15.5,GST,0.775,CAD
4009,Flora Bunda,07/12/2019,22/12/2019,Net 15,,,Carnations:Carnation,Bizet  25 st/bu Standard,1,11,11,GST,0.55,CAD
4009,Flora Bunda,07/12/2019,22/12/2019,Net 15,,,Carnations:Carnation,Golem  25 st/bu Standard,1,11,11,GST,0.55,CAD
4009,Flora Bunda,07/12/2019,22/12/2019,Net 15,,,Carnations:Carnation,Moonlight  25 st/bu Standard,1,11,11,GST,0.55,CAD
4009,Flora Bunda,07/12/2019,22/12/2019,Net 15,,,Carnations:Mini Carnation,Ibis 60 cm 10 st/bu ,3,5.3,15.9,GST,0.795,CAD
4009,Flora Bunda,07/12/2019,22/12/2019,Net 15,,,Flowers & Fillers:Gypsophilia 500gr,Million Stars 75 cm 10 st/bu ,1,16,16,GST,0.8,CAD
4009,Flora Bunda,07/12/2019,22/12/2019,Net 15,,,Flowers & Fillers:Hydrangea Mini Green,Mini Green Dark 60 cm 1 st/bu Mini,15,1.5,22.5,GST,1.125,CAD
4009,Flora Bunda,07/12/2019,22/12/2019,Net 15,,,Roses:Roses,Hot Explorer 60 cm 25 st/bu ,1,33.75,33.75,GST,1.6875,CAD
4009,Flora Bunda,07/12/2019,22/12/2019,Net 15,,,Roses:Roses,Magic Times 60 cm 25 st/bu ,1,33.75,33.75,GST,1.6875,CAD
4009,Flora Bunda,07/12/2019,22/12/2019,Net 15,,,Roses:Roses,Mondial 70 cm 25 st/bu ,1,33.75,33.75,GST,1.6875,CAD
4009,Flora Bunda,07/12/2019,22/12/2019,Net 15,,,Roses:Spray Roses,Pink Irischka 60 cm 10 st/bu ,1,15.5,15.5,GST,0.775,CAD
4009,Flora Bunda,07/12/2019,22/12/2019,Net 15,,,Roses:Spray Roses,White Majolika 50 cm 10 st/bu ,2,15.5,31,GST,1.55,CAD
4010,Flowers And Company,07/12/2019,22/12/2019,Net 15,,,Flowers & Fillers:Gypsophilia 500gr,Xcelence 75 cm 10 st/bu,1,16,16,GST,0.8,CAD
4010,Flowers And Company,07/12/2019,22/12/2019,Net 15,,,Roses:Roses,Explorer 60 cm 25 st/bu ,2,33.75,67.5,GST,3.375,CAD
4010,Flowers And Company,07/12/2019,22/12/2019,Net 15,,,Roses:Roses,Faith 50 cm 25 st/bu ,1,33.75,33.75,GST,1.6875,CAD
4010,Flowers And Company,07/12/2019,22/12/2019,Net 15,,,Roses:Roses,Frutteto 60 cm 25 st/bu ,2,33.75,67.5,GST,3.375,CAD
4010,Flowers And Company,07/12/2019,22/12/2019,Net 15,,,Roses:Roses,Mondial 60 cm 25 st/bu ,2,33.75,67.5,GST,3.375,CAD
4010,Flowers And Company,07/12/2019,22/12/2019,Net 15,,,Roses:Roses,Shimmer 60 cm 25 st/bu ,1,33.75,33.75,GST,1.6875,CAD
4011,Foxgloves,07/12/2019,22/12/2019,Net 15,,,Flowers & Fillers:Hypericum,Magical Green Power 70 cm 10 st/bu ,2,12.5,25,GST,1.25,CAD
4011,Foxgloves,07/12/2019,22/12/2019,Net 15,,,Flowers & Fillers:Hypericum,Magical Pink 70 cm 10 st/bu ,2,12.5,25,GST,1.25,CAD
4011,Foxgloves,07/12/2019,22/12/2019,Net 15,,,Flowers & Fillers:Leucadendrum,Leucadendrum 65 cm 10 st/bu ,4,8.75,35,GST,1.75,CAD
4011,Foxgloves,07/12/2019,22/12/2019,Net 15,,,Flowers & Fillers:Ranunculus,Agrogana Peach 40 cm 10 st/bu ,1,19.5,19.5,GST,0.975,CAD
4011,Foxgloves,07/12/2019,22/12/2019,Net 15,,,Flowers & Fillers:Ranunculus,Agrogana White 40 cm 10 st/bu ,1,19.5,19.5,GST,0.975,CAD
4011,Foxgloves,07/12/2019,22/12/2019,Net 15,,,Flowers & Fillers:Stock,James Purple 70 cm 10 st/bu ,1,11.75,11.75,GST,0.5875,CAD
4011,Foxgloves,07/12/2019,22/12/2019,Net 15,,,Flowers & Fillers:Stock,James Red 70 cm 10 st/bu ,1,11.75,11.75,GST,0.5875,CAD
4011,Foxgloves,07/12/2019,22/12/2019,Net 15,,,Flowers & Fillers:Stock,James White 70 cm 10 st/bu ,1,11.75,11.75,GST,0.5875,CAD
4011,Foxgloves,07/12/2019,22/12/2019,Net 15,,,Roses:Roses,Confidential 60 cm 25 st/bu ,1,33.75,33.75,GST,1.6875,CAD
4011,Foxgloves,07/12/2019,22/12/2019,Net 15,,,Roses:Roses,Explorer 60 cm 25 st/bu ,2,40,80,GST,4,CAD
4011,Foxgloves,07/12/2019,22/12/2019,Net 15,,,Roses:Roses,Faith 50 cm 25 st/bu ,1,33.75,33.75,GST,1.6875,CAD
4011,Foxgloves,07/12/2019,22/12/2019,Net 15,,,Roses:Roses,Mondial 60 cm 25 st/bu ,1,37.5,37.5,GST,1.875,CAD
4011,Foxgloves,07/12/2019,22/12/2019,Net 15,,,Roses:Roses,Quicksand 60 cm 25 st/bu ,1,46.25,46.25,GST,2.3125,CAD
4011,Foxgloves,07/12/2019,22/12/2019,Net 15,,,Roses:Spray Roses,Rubicon 50 cm 10 st/bu ,1,18,18,GST,0.9,CAD
4011,Foxgloves,07/12/2019,22/12/2019,Net 15,,,Roses:Spray Roses,Sahara Sensation 60 cm 10 st/bu ,1,15.5,15.5,GST,0.775,CAD
4012,Garden Party Team,07/12/2019,22/12/2019,Net 15,,,Flowers & Fillers:Ranunculus,Agrogana Coral 40 cm 10 st/bu ,1,19.5,19.5,GST,0.975,CAD
4012,Garden Party Team,07/12/2019,22/12/2019,Net 15,,,Flowers & Fillers:Ranunculus,Agrogana Hot Pink 40 cm 10 st/bu ,3,19.5,58.5,GST,2.925,CAD
4012,Garden Party Team,07/12/2019,22/12/2019,Net 15,,,Flowers & Fillers:Ranunculus,Agrogana Light Pink 50 cm 10 st/bu ,1,19.5,19.5,GST,0.975,CAD
4012,Garden Party Team,07/12/2019,22/12/2019,Net 15,,,Flowers & Fillers:Ranunculus,Agrogana Red 40 cm 10 st/bu ,1,19.5,19.5,GST,0.975,CAD
4012,Garden Party Team,07/12/2019,22/12/2019,Net 15,,,Flowers & Fillers:Ranunculus,Agrogana White 50 cm 10 st/bu ,1,19.5,19.5,GST,0.975,CAD
4012,Garden Party Team,07/12/2019,22/12/2019,Net 15,,,Flowers & Fillers:Ranunculus,Agrogana White 40 cm 10 st/bu ,1,19.5,19.5,GST,0.975,CAD
4012,Garden Party Team,07/12/2019,22/12/2019,Net 15,,,Roses:Roses,Freedom 60 cm 25 st/bu ,3,33.75,101.25,GST,5.0625,CAD
4012,Garden Party Team,07/12/2019,22/12/2019,Net 15,,,Roses:Roses,Gotcha 60 cm 25 st/bu ,1,33.75,33.75,GST,1.6875,CAD
4012,Garden Party Team,07/12/2019,22/12/2019,Net 15,,,Roses:Roses,Hot Explorer 60 cm 25 st/bu ,1,33.75,33.75,GST,1.6875,CAD
4012,Garden Party Team,07/12/2019,22/12/2019,Net 15,,,Roses:Roses,Shimmer 60 cm 25 st/bu ,1,33.75,33.75,GST,1.6875,CAD
4013,Harrys Flowers,07/12/2019,22/12/2019,Net 15,,,"Greens, Foliages and Branches:Dusty Miller",Dusty Miller 50 cm 10 st/bu ,1,0,0,GST,0,CAD
4013,Harrys Flowers,07/12/2019,22/12/2019,Net 15,,,Asters:Solidago Golden Glory,Solidago Golden Glory 80 cm 10 st/bu 250gr,8,9.85,78.8,GST,3.94,CAD
4013,Harrys Flowers,07/12/2019,22/12/2019,Net 15,,,Carnations:Carnation,Daniko  25 st/bu Select,2,11,22,GST,1.1,CAD
4013,Harrys Flowers,07/12/2019,22/12/2019,Net 15,,,Carnations:Carnation,Don Pedro  25 st/bu Standard,4,11,44,GST,2.2,CAD
4013,Harrys Flowers,07/12/2019,22/12/2019,Net 15,,,Carnations:Carnation,Kaori  25 st/bu Standard,1,11,11,GST,0.55,CAD
4013,Harrys Flowers,07/12/2019,22/12/2019,Net 15,,,Carnations:Carnation,Moonlight  25 st/bu Select,2,11,22,GST,1.1,CAD
4013,Harrys Flowers,07/12/2019,22/12/2019,Net 15,,,Carnations:Carnation,Prado Mint 25 st/bu Standard,1,11,11,GST,0.55,CAD
4013,Harrys Flowers,07/12/2019,22/12/2019,Net 15,,,Carnations:Mini Carnation,Aragon 60 cm 10 st/bu ,3,5.3,15.9,GST,0.795,CAD
4013,Harrys Flowers,07/12/2019,22/12/2019,Net 15,,,Carnations:Mini Carnation,Chateau 60 cm 10 st/bu ,3,5.3,15.9,GST,0.795,CAD
4013,Harrys Flowers,07/12/2019,22/12/2019,Net 15,,,Carnations:Mini Carnation,Corinto 60 cm 10 st/bu ,2,5.3,10.6,GST,0.53,CAD
4013,Harrys Flowers,07/12/2019,22/12/2019,Net 15,,,Carnations:Mini Carnation,Epsilon 60 cm 10 st/bu ,2,5.3,10.6,GST,0.53,CAD
4013,Harrys Flowers,07/12/2019,22/12/2019,Net 15,,,Carnations:Mini Carnation,Fellini 60 cm 10 st/bu ,2,5.3,10.6,GST,0.53,CAD
4013,Harrys Flowers,07/12/2019,22/12/2019,Net 15,,,Carnations:Mini Carnation,Funetto 60 cm 10 st/bu ,2,5.3,10.6,GST,0.53,CAD
4013,Harrys Flowers,07/12/2019,22/12/2019,Net 15,,,Carnations:Mini Carnation,Olivino 60 cm 10 st/bu ,2,5.3,10.6,GST,0.53,CAD
4013,Harrys Flowers,07/12/2019,22/12/2019,Net 15,,,Carnations:Mini Carnation,Pigeon 60 cm 10 st/bu ,2,5.3,10.6,GST,0.53,CAD
4013,Harrys Flowers,07/12/2019,22/12/2019,Net 15,,,Flowers & Fillers:Bupleurum,Bupleurum 70 cm 10 st/bu ,5,9.5,47.5,GST,2.375,CAD
4013,Harrys Flowers,07/12/2019,22/12/2019,Net 15,,,Flowers & Fillers:Gypsophilia 500gr,Xcelence 75 cm 10 st/bu ,6,16,96,GST,4.8,CAD
4013,Harrys Flowers,07/12/2019,22/12/2019,Net 15,,,Flowers & Fillers:Hydrangea Mini Green,Mini Green Dark 60 cm 1 st/bu Mini,30,1.5,45,GST,2.25,CAD
4013,Harrys Flowers,07/12/2019,22/12/2019,Net 15,,,Flowers & Fillers:Hydrangea Mini Green,Zion White 60 cm 1 st/bu Select,12,1.5,18,GST,0.9,CAD
4013,Harrys Flowers,07/12/2019,22/12/2019,Net 15,,,Flowers & Fillers:Hydrangea Mini Green,Zion White 60 cm 1 st/bu Select,12,1.5,18,GST,0.9,CAD
4013,Harrys Flowers,07/12/2019,22/12/2019,Net 15,,,Flowers & Fillers:Hypericum,Magical Triumph 70 cm 10 st/bu ,4,12.5,50,GST,2.5,CAD
4013,Harrys Flowers,07/12/2019,22/12/2019,Net 15,,,Flowers & Fillers:Leucadendrum,Leucadendrum 65 cm 10 st/bu ,5,8.75,43.75,GST,2.1875,CAD
4013,Harrys Flowers,07/12/2019,22/12/2019,Net 15,,,Limonium:Limonioum,Limonium Blue 70 cm 12 st/bu ,3,9.8,29.4,GST,1.47,CAD
4013,Harrys Flowers,07/12/2019,22/12/2019,Net 15,,,Limonium:Statice,Bazzani Purple 70 cm 10 st/bu ,6,8.75,52.5,GST,2.625,CAD
4013,Harrys Flowers,07/12/2019,22/12/2019,Net 15,,,Roses:Roses,Atomic 60 cm 25 st/bu ,1,33.75,33.75,GST,1.6875,CAD
4013,Harrys Flowers,07/12/2019,22/12/2019,Net 15,,,Roses:Roses,Deep Purple 60 cm 25 st/bu ,2,33.75,67.5,GST,3.375,CAD
4013,Harrys Flowers,07/12/2019,22/12/2019,Net 15,,,Roses:Roses,Freedom 60 cm 25 st/bu ,1,40,40,GST,2,CAD
4013,Harrys Flowers,07/12/2019,22/12/2019,Net 15,,,Roses:Roses,Freedom 60 cm 25 st/bu ,5,40,200,GST,10,CAD
4013,Harrys Flowers,07/12/2019,22/12/2019,Net 15,,,Roses:Roses,Freedom 60 cm 25 st/bu ,1,40,40,GST,2,CAD
4013,Harrys Flowers,07/12/2019,22/12/2019,Net 15,,,Roses:Roses,Freedom 60 cm 25 st/bu ,2,40,80,GST,4,CAD
4013,Harrys Flowers,07/12/2019,22/12/2019,Net 15,,,Roses:Roses,Freedom 60 cm 25 st/bu ,1,40,40,GST,2,CAD
4013,Harrys Flowers,07/12/2019,22/12/2019,Net 15,,,Roses:Roses,Frutteto 60 cm 25 st/bu ,1,33.75,33.75,GST,1.6875,CAD
4013,Harrys Flowers,07/12/2019,22/12/2019,Net 15,,,Roses:Roses,Gotcha 60 cm 25 st/bu ,1,33.75,33.75,GST,1.6875,CAD
4013,Harrys Flowers,07/12/2019,22/12/2019,Net 15,,,Roses:Roses,Mondial 60 cm 25 st/bu ,4,40,160,GST,8,CAD
4013,Harrys Flowers,07/12/2019,22/12/2019,Net 15,,,Roses:Roses,Tiffany 60 cm 25 st/bu ,1,33.75,33.75,GST,1.6875,CAD
4014,Ingrid Wu,07/12/2019,22/12/2019,Net 15,,,Flowers & Fillers:Hydrangea Mini Green,Mini Green Dark 60 cm 1 st/bu Mini,15,1.5,22.5,GST,1.125,CAD
4014,Ingrid Wu,07/12/2019,22/12/2019,Net 15,,,Flowers & Fillers:Ranunculus,Agrogana Cream 40 cm 10 st/bu ,1,19.5,19.5,GST,0.975,CAD
4014,Ingrid Wu,07/12/2019,22/12/2019,Net 15,,,Flowers & Fillers:Ranunculus,Agrogana White 40 cm 10 st/bu ,1,19.5,19.5,GST,0.975,CAD
4014,Ingrid Wu,07/12/2019,22/12/2019,Net 15,,,Roses:Roses,Playa Blanca  60 cm 25 st/bu ,2,33.75,67.5,GST,3.375,CAD
4015,Jennings Florist,07/12/2019,22/12/2019,Net 15,,,Roses:Roses,Explorer 60 cm 25 st/bu ,1,45,45,GST,2.25,CAD
4015,Jennings Florist,07/12/2019,22/12/2019,Net 15,,,Roses:Roses,Playa Blanca  60 cm 25 st/bu ,1,45,45,GST,2.25,CAD
4015,Jennings Florist,07/12/2019,22/12/2019,Net 15,,,Roses:Spray Roses,Rubicon 50 cm 10 st/bu ,1,20,20,GST,1,CAD
4015,Jennings Florist,07/12/2019,22/12/2019,Net 15,,,Roses:Spray Roses,Scarlett Mimi 50 cm 10 st/bu ,2,20,40,GST,2,CAD
4016,John den Haan,07/12/2019,22/12/2019,Net 15,,,Roses:Roses,Quicksand 60 cm 25 st/bu ,1,41.25,41.25,GST,2.0625,CAD
4017,Maureen Sullivan Floral Design Studio,07/12/2019,22/12/2019,Net 15,,,Carnations:Carnation,Crimson Tempo  25 st/bu Standard,1,12,12,GST,0.6,CAD
4017,Maureen Sullivan Floral Design Studio,07/12/2019,22/12/2019,Net 15,,,Carnations:Carnation,Moonlight  25 st/bu Standard,1,11,11,GST,0.55,CAD
4017,Maureen Sullivan Floral Design Studio,07/12/2019,22/12/2019,Net 15,,,Roses:Roses,Freedom 60 cm 25 st/bu ,1,40,40,GST,2,CAD
4017,Maureen Sullivan Floral Design Studio,07/12/2019,22/12/2019,Net 15,,,Roses:Roses,Gotcha 60 cm 25 st/bu ,1,33.75,33.75,GST,1.6875,CAD
4017,Maureen Sullivan Floral Design Studio,07/12/2019,22/12/2019,Net 15,,,Roses:Roses,Playa Blanca  60 cm 25 st/bu ,1,40,40,GST,2,CAD
4018,Oak Bay Flower Shop,07/12/2019,22/12/2019,Net 15,,,Flowers & Fillers:Gypsophilia 500gr,Million Stars 75 cm 10 st/bu ,3,16,48,GST,2.4,CAD
4018,Oak Bay Flower Shop,07/12/2019,22/12/2019,Net 15,,,Roses:Roses,Brighton 60 cm 25 st/bu ,1,33.75,33.75,GST,1.6875,CAD
4018,Oak Bay Flower Shop,07/12/2019,22/12/2019,Net 15,,,Roses:Roses,Explorer 60 cm 25 st/bu ,1,33.75,33.75,GST,1.6875,CAD
4018,Oak Bay Flower Shop,07/12/2019,22/12/2019,Net 15,,,Roses:Roses,Mondial 60 cm 25 st/bu ,1,33.75,33.75,GST,1.6875,CAD
4018,Oak Bay Flower Shop,07/12/2019,22/12/2019,Net 15,,,Roses:Roses,Shimmer 60 cm 25 st/bu ,1,33.75,33.75,GST,1.6875,CAD
4018,Oak Bay Flower Shop,07/12/2019,22/12/2019,Net 15,,,Roses:Roses,Wasabi 50 cm 25 st/bu ,1,33.75,33.75,GST,1.6875,CAD
4019,Pacific Coast Floral Wholesale Ltd,07/12/2019,22/12/2019,Net 15,,,Alstromeria:Alstromeria,Whisler 50 cm 10 st/bu Select,8,6.52,52.16,GST,2.608,CAD
4019,Pacific Coast Floral Wholesale Ltd,07/12/2019,22/12/2019,Net 15,,,Carnations:Carnation,Don Pedro  25 st/bu Standard,8,8.75,70,GST,3.5,CAD
4019,Pacific Coast Floral Wholesale Ltd,07/12/2019,22/12/2019,Net 15,,,Carnations:Carnation,Moonlight  25 st/bu Select,8,8.75,70,GST,3.5,CAD
4019,Pacific Coast Floral Wholesale Ltd,07/12/2019,22/12/2019,Net 15,,,Carnations:Carnation,Prado Mint  25 st/bu Select,1,8.75,8.75,GST,0.4375,CAD
4019,Pacific Coast Floral Wholesale Ltd,07/12/2019,22/12/2019,Net 15,,,Carnations:Carnation,Prado Mint  25 st/bu Select,3,8.75,26.25,GST,1.3125,CAD
4019,Pacific Coast Floral Wholesale Ltd,07/12/2019,22/12/2019,Net 15,,,Flowers & Fillers:Anemones,Agrogana White 40 cm 10 st/bu ,7,16.53,115.71,GST,5.7855,CAD
4019,Pacific Coast Floral Wholesale Ltd,07/12/2019,22/12/2019,Net 15,,,Flowers & Fillers:Bells Of Ireland,Molucella Bells of Ireland 90 cm 10 st/bu ,9,9.52,85.68,GST,4.284,CAD
4019,Pacific Coast Floral Wholesale Ltd,07/12/2019,22/12/2019,Net 15,,,Flowers & Fillers:Delphinium,Delphinium Hybrid White 80 cm 10 st/bu ,3,10.31,30.93,GST,1.5465,CAD
4019,Pacific Coast Floral Wholesale Ltd,07/12/2019,22/12/2019,Net 15,,,Flowers & Fillers:Delphinium,Delphinium Hybrid White 70 cm 10 st/bu ,2,9.63,19.26,GST,0.963,CAD
4019,Pacific Coast Floral Wholesale Ltd,07/12/2019,22/12/2019,Net 15,,,Flowers & Fillers:Hydrangea Mini Green,Agrogana White 50 cm 10 st/bu ,3,16.53,49.59,GST,2.4795,CAD
4019,Pacific Coast Floral Wholesale Ltd,07/12/2019,22/12/2019,Net 15,,,Flowers & Fillers:Hydrangea Mini Green,Mini Green Dark 60 cm 1 st/bu Select,60,1.35,81,GST,4.05,CAD
4019,Pacific Coast Floral Wholesale Ltd,07/12/2019,22/12/2019,Net 15,,,Flowers & Fillers:Hydrangea Mini Green,Zion White 60 cm 1 st/bu Select,12,1.55,18.6,GST,0.93,CAD
4019,Pacific Coast Floral Wholesale Ltd,07/12/2019,22/12/2019,Net 15,,,Flowers & Fillers:Hydrangea Mini Green,Zion White 60 cm 1 st/bu Select,12,1.55,18.6,GST,0.93,CAD
4019,Pacific Coast Floral Wholesale Ltd,07/12/2019,22/12/2019,Net 15,,,Flowers & Fillers:Hydrangea Mini Green,Zion White 60 cm 1 st/bu Select,30,1.55,46.5,GST,2.325,CAD
4019,Pacific Coast Floral Wholesale Ltd,07/12/2019,22/12/2019,Net 15,,,Flowers & Fillers:Hydrangea Mini Green,Zion White 60 cm 1 st/bu Select,30,1.55,46.5,GST,2.325,CAD
4019,Pacific Coast Floral Wholesale Ltd,07/12/2019,22/12/2019,Net 15,,,Flowers & Fillers:Ranunculus,Agrogana White 40 cm 10 st/bu ,10,15.5,155,GST,7.75,CAD
4019,Pacific Coast Floral Wholesale Ltd,07/12/2019,22/12/2019,Net 15,,,Flowers & Fillers:Stock,James White 70 cm 10 st/bu ,15,6.85,102.75,GST,5.1375,CAD
4019,Pacific Coast Floral Wholesale Ltd,07/12/2019,22/12/2019,Net 15,,,Flowers & Fillers:Stock,James White 70 cm 10 st/bu ,15,6.85,102.75,GST,5.1375,CAD
4019,Pacific Coast Floral Wholesale Ltd,07/12/2019,22/12/2019,Net 15,,,Limonium:Statice,Bazzani White 50 cm 10 st/bu ,8,5.86,46.88,GST,2.344,CAD
4019,Pacific Coast Floral Wholesale Ltd,07/12/2019,22/12/2019,Net 15,,,Roses:Garden Roses,White OHara 40 cm 25 st/bu ,3,18.75,56.25,GST,2.8125,CAD
4019,Pacific Coast Floral Wholesale Ltd,07/12/2019,22/12/2019,Net 15,,,Roses:Garden Roses,White OHara 50 cm 25 st/bu ,2,18.75,37.5,GST,1.875,CAD
4019,Pacific Coast Floral Wholesale Ltd,07/12/2019,22/12/2019,Net 15,,,Roses:Roses,Explorer 40 cm 25 st/bu ,5,18.75,93.75,GST,4.6875,CAD
4019,Pacific Coast Floral Wholesale Ltd,07/12/2019,22/12/2019,Net 15,,,Roses:Roses,Hearts 40 cm 25 st/bu ,12,18.75,225,GST,11.25,CAD
4019,Pacific Coast Floral Wholesale Ltd,07/12/2019,22/12/2019,Net 15,,,Roses:Roses,Kahala  40 cm 25 st/bu ,5,18.75,93.75,GST,4.6875,CAD
4020,Shes My Florist,07/12/2019,22/12/2019,Net 15,,,Carnations:Carnation,Banana  25 st/bu Standard,1,11,11,GST,0.55,CAD
4020,Shes My Florist,07/12/2019,22/12/2019,Net 15,,,Carnations:Carnation,Bengala  25 st/bu Standard,1,11,11,GST,0.55,CAD
4020,Shes My Florist,07/12/2019,22/12/2019,Net 15,,,Carnations:Carnation,Doncel   25 st/bu Standard,1,11,11,GST,0.55,CAD
4020,Shes My Florist,07/12/2019,22/12/2019,Net 15,,,Carnations:Carnation,Lion King  25 st/bu Standard,1,11,11,GST,0.55,CAD
4020,Shes My Florist,07/12/2019,22/12/2019,Net 15,,,Carnations:Carnation,Moonlight  25 st/bu Standard,4,11,44,GST,2.2,CAD
4020,Shes My Florist,07/12/2019,22/12/2019,Net 15,,,Roses:Roses,Atomic 60 cm 25 st/bu ,1,33.75,33.75,GST,1.6875,CAD
4020,Shes My Florist,07/12/2019,22/12/2019,Net 15,,,Roses:Roses,Brighton 60 cm 25 st/bu ,2,33.75,67.5,GST,3.375,CAD
4020,Shes My Florist,07/12/2019,22/12/2019,Net 15,,,Roses:Roses,Confidential 60 cm 25 st/bu ,1,33.75,33.75,GST,1.6875,CAD
4020,Shes My Florist,07/12/2019,22/12/2019,Net 15,,,Roses:Roses,Deep Purple 60 cm 25 st/bu ,1,33.75,33.75,GST,1.6875,CAD
4020,Shes My Florist,07/12/2019,22/12/2019,Net 15,,,Roses:Roses,Explorer 60 cm 25 st/bu ,1,38.75,38.75,GST,1.9375,CAD
4020,Shes My Florist,07/12/2019,22/12/2019,Net 15,,,Roses:Roses,Faith 50 cm 25 st/bu ,1,33.75,33.75,GST,1.6875,CAD
4020,Shes My Florist,07/12/2019,22/12/2019,Net 15,,,Roses:Roses,Free Spirit 50 cm 25 st/bu ,1,33.75,33.75,GST,1.6875,CAD
4020,Shes My Florist,07/12/2019,22/12/2019,Net 15,,,Roses:Roses,Gotcha 60 cm 25 st/bu ,1,33.75,33.75,GST,1.6875,CAD
4020,Shes My Florist,07/12/2019,22/12/2019,Net 15,,,Roses:Roses,Novia 60 cm 25 st/bu ,1,33.75,33.75,GST,1.6875,CAD
4020,Shes My Florist,07/12/2019,22/12/2019,Net 15,,,Roses:Roses,Playa Blanca  60 cm 25 st/bu ,1,38.75,38.75,GST,1.9375,CAD
4020,Shes My Florist,07/12/2019,22/12/2019,Net 15,,,Roses:Roses,Shimmer 60 cm 25 st/bu ,1,33.75,33.75,GST,1.6875,CAD
4020,Shes My Florist,07/12/2019,22/12/2019,Net 15,,,Roses:Spray Roses,Starblush 60 cm 10 st/bu ,1,15.5,15.5,GST,0.775,CAD
4021,The Flower Factory,07/12/2019,22/12/2019,Net 15,,,Carnations:Carnation,Caramel  25 st/bu Standard,3,11,33,GST,1.65,CAD
4021,The Flower Factory,07/12/2019,22/12/2019,Net 15,,,Flowers & Fillers:Anemones,Agrogana White 40 cm 10 st/bu ,10,19.5,195,GST,9.75,CAD
4021,The Flower Factory,07/12/2019,22/12/2019,Net 15,,,Flowers & Fillers:Ranunculus,Agrogana Coral 40 cm 10 st/bu ,1,19.5,19.5,GST,0.975,CAD
4021,The Flower Factory,07/12/2019,22/12/2019,Net 15,,,Flowers & Fillers:Ranunculus,Agrogana Orange 50 cm 10 st/bu ,1,19.5,19.5,GST,0.975,CAD
4021,The Flower Factory,07/12/2019,22/12/2019,Net 15,,,Flowers & Fillers:Ranunculus,Agrogana Orange 50 cm 10 st/bu ,1,19.5,19.5,GST,0.975,CAD
4021,The Flower Factory,07/12/2019,22/12/2019,Net 15,,,Flowers & Fillers:Ranunculus,Agrogana Peach 50 cm 10 st/bu ,1,19.5,19.5,GST,0.975,CAD
4021,The Flower Factory,07/12/2019,22/12/2019,Net 15,,,Flowers & Fillers:Ranunculus,Agrogana Peach 50 cm 10 st/bu ,1,19.5,19.5,GST,0.975,CAD
4021,The Flower Factory,07/12/2019,22/12/2019,Net 15,,,Flowers & Fillers:Ranunculus,Agrogana Peach 40 cm 10 st/bu ,1,19.5,19.5,GST,0.975,CAD
4021,The Flower Factory,07/12/2019,22/12/2019,Net 15,,,Flowers & Fillers:Ranunculus,Agrogana Peach 40 cm 10 st/bu ,2,19.5,39,GST,1.95,CAD
4021,The Flower Factory,07/12/2019,22/12/2019,Net 15,,,Flowers & Fillers:Ranunculus,Agrogana Purple 40 cm 10 st/bu ,1,19.5,19.5,GST,0.975,CAD
4021,The Flower Factory,07/12/2019,22/12/2019,Net 15,,,Flowers & Fillers:Ranunculus,Agrogana Purple 40 cm 10 st/bu ,1,19.5,19.5,GST,0.975,CAD
4021,The Flower Factory,07/12/2019,22/12/2019,Net 15,,,Flowers & Fillers:Ranunculus,Agrogana White 40 cm 10 st/bu ,2,19.5,39,GST,1.95,CAD
4021,The Flower Factory,07/12/2019,22/12/2019,Net 15,,,Flowers & Fillers:Ranunculus,Agrogana Yellow 40 cm 10 st/bu ,1,19.5,19.5,GST,0.975,CAD
4021,The Flower Factory,07/12/2019,22/12/2019,Net 15,,,Flowers & Fillers:Ranunculus,Agrogana Yellow 40 cm 10 st/bu ,1,19.5,19.5,GST,0.975,CAD
4021,The Flower Factory,07/12/2019,22/12/2019,Net 15,,,"Greens, Foliages and Branches:Eryngium",Deep Blue Jackpot 50 cm 5 st/bu ,8,14.5,116,GST,5.8,CAD
4021,The Flower Factory,07/12/2019,22/12/2019,Net 15,,,Roses:Roses,Free Spirit 50 cm 25 st/bu ,1,33.75,33.75,GST,1.6875,CAD
4021,The Flower Factory,07/12/2019,22/12/2019,Net 15,,,Roses:Roses,Playa Blanca  60 cm 25 st/bu ,1,33.75,33.75,GST,1.6875,CAD
4021,The Flower Factory,07/12/2019,22/12/2019,Net 15,,,Roses:Roses,Shimmer 60 cm 25 st/bu ,1,33.75,33.75,GST,1.6875,CAD
4022,Thorn & Thistle,07/12/2019,22/12/2019,Net 15,,,Carnations:Carnation,Caramel  25 st/bu Standard,1,11,11,GST,0.55,CAD
4022,Thorn & Thistle,07/12/2019,22/12/2019,Net 15,,,Flowers & Fillers:Ranunculus,Agrogana Peach 40 cm 10 st/bu ,2,19.5,39,GST,1.95,CAD
4022,Thorn & Thistle,07/12/2019,22/12/2019,Net 15,,,Flowers & Fillers:Ranunculus,Agrogana White 40 cm 10 st/bu ,2,19.5,39,GST,1.95,CAD
4022,Thorn & Thistle,07/12/2019,22/12/2019,Net 15,,,Roses:Roses,Explorer 60 cm 25 st/bu ,1,45,45,GST,2.25,CAD
4022,Thorn & Thistle,07/12/2019,22/12/2019,Net 15,,,Roses:Roses,Mondial 60 cm 25 st/bu ,2,33.75,67.5,GST,3.375,CAD
4022,Thorn & Thistle,07/12/2019,22/12/2019,Net 15,,,Roses:Roses,Playa Blanca  60 cm 25 st/bu ,2,45,90,GST,4.5,CAD
4022,Thorn & Thistle,07/12/2019,22/12/2019,Net 15,,,Roses:Roses,Quicksand 60 cm 25 st/bu ,2,50,100,GST,5,CAD
4023,West Coast Floral Growers & Distr.,07/12/2019,22/12/2019,Net 15,,,Roses:Roses,Brighton 60 cm 25 st/bu ,1,31.25,31.25,GST,1.5625,CAD
4023,West Coast Floral Growers & Distr.,07/12/2019,22/12/2019,Net 15,,,Roses:Roses,Deep Purple 60 cm 25 st/bu ,1,31.25,31.25,GST,1.5625,CAD
4023,West Coast Floral Growers & Distr.,07/12/2019,22/12/2019,Net 15,,,Roses:Roses,Explorer 60 cm 25 st/bu ,1,31.25,31.25,GST,1.5625,CAD
4023,West Coast Floral Growers & Distr.,07/12/2019,22/12/2019,Net 15,,,Roses:Roses,Free Spirit 50 cm 25 st/bu ,1,31.25,31.25,GST,1.5625,CAD
4023,West Coast Floral Growers & Distr.,07/12/2019,22/12/2019,Net 15,,,Roses:Roses,Freedom 60 cm 25 st/bu ,3,31.25,93.75,GST,4.6875,CAD
4023,West Coast Floral Growers & Distr.,07/12/2019,22/12/2019,Net 15,,,Roses:Roses,Freedom 60 cm 25 st/bu ,1,31.25,31.25,GST,1.5625,CAD
4023,West Coast Floral Growers & Distr.,07/12/2019,22/12/2019,Net 15,,,Roses:Roses,Gotcha 60 cm 25 st/bu ,1,31.25,31.25,GST,1.5625,CAD
4023,West Coast Floral Growers & Distr.,07/12/2019,22/12/2019,Net 15,,,Roses:Roses,Moody Blues 60 cm 25 st/bu ,1,31.25,31.25,GST,1.5625,CAD
4023,West Coast Floral Growers & Distr.,07/12/2019,22/12/2019,Net 15,,,Roses:Roses,Pink Mondial 60 cm 25 st/bu ,1,31.25,31.25,GST,1.5625,CAD
4023,West Coast Floral Growers & Distr.,07/12/2019,22/12/2019,Net 15,,,Roses:Roses,Shimmer 50 cm 25 st/bu ,1,31.25,31.25,GST,1.5625,CAD
4023,West Coast Floral Growers & Distr.,07/12/2019,22/12/2019,Net 15,,,Roses:Roses,Turtle 60 cm 25 st/bu ,1,31.25,31.25,GST,1.5625,CAD
4023,West Coast Floral Growers & Distr.,07/12/2019,22/12/2019,Net 15,,,Roses:Roses,Vendela 60 cm 25 st/bu ,3,31.25,93.75,GST,4.6875,CAD
4023,West Coast Floral Growers & Distr.,07/12/2019,22/12/2019,Net 15,,,Roses:Roses,Wasabi 50 cm 25 st/bu ,1,31.25,31.25,GST,1.5625,CAD
4024,Windsor Market,07/12/2019,22/12/2019,Net 15,,,Roses:Roses,Free Spirit 50 cm 25 st/bu ,1,33.75,33.75,GST,1.6875,CAD
4024,Windsor Market,07/12/2019,22/12/2019,Net 15,,,Roses:Roses,Turtle 60 cm 25 st/bu ,1,33.75,33.75,GST,1.6875,CAD
4024,Windsor Market,07/12/2019,22/12/2019,Net 15,,,Roses:Spray Roses,Babe 50 cm 10 st/bu ,1,33.75,33.75,GST,1.6875,CAD
4024,Windsor Market,07/12/2019,22/12/2019,Net 15,,,Roses:Spray Roses,Somerset 50 cm 10 st/bu ,1,15.5,15.5,GST,0.775,CAD
